バブル・マップによる地価の可視化
…
地価公示ポイント（バブル）の大きさを変えるために，aes(size)を利用する．これを活かすために，地価公示ポイント（x軸が経度，y軸が緯度）の変数を作成．

地価公示ポイントは緯度経度により表現される．この情報は列名geometryにすでに納められている．

データ名[c("列名")]：列の中身を確認．

Kanagawa_lp[c("geometry")]

## Simple feature collection with 1787 features and 0 fields
## Geometry type: POINT
## Dimension:     XY
## Bounding box:  xmin: 139.0266 ymin: 35.14204 xmax: 139.7578 ymax: 35.63712
## Geodetic CRS:  JGD2000
## # A tibble: 1,787 x 1
##                geometry
##    <POINT [arc_degree]>
##  1  (139.6507 35.20473)
##  2  (139.2251 35.41038)
##  3  (139.1146 35.25959)
##  4  (139.3062 35.46262)
##  5    (139.247 35.3452)
##  6  (139.4259 35.40653)
##  7  (139.5964 35.36467)
##  8  (139.5203 35.49649)
##  9  (139.0488 35.26175)
## 10  (139.0972 35.33835)
## # ... with 1,777 more rows
…
mutate(Kanagawa_lp, 
       x=st_coordinates(geometry)[, 1], 
       y=st_coordinates(geometry)[, 2]) -> 
  Kanagawa_lp
 
#列の中身を確認
Kanagawa_lp[c("geometry", "x", "y")]

## Simple feature collection with 1787 features and 2 fields
## Geometry type: POINT
## Dimension:     XY
## Bounding box:  xmin: 139.0266 ymin: 35.14204 xmax: 139.7578 ymax: 35.63712
## Geodetic CRS:  JGD2000
## # A tibble: 1,787 x 3
##                geometry     x     y
##    <POINT [arc_degree]> <dbl> <dbl>
##  1  (139.6507 35.20473)  140.  35.2
##  2  (139.2251 35.41038)  139.  35.4
##  3  (139.1146 35.25959)  139.  35.3
##  4  (139.3062 35.46262)  139.  35.5
##  5    (139.247 35.3452)  139.  35.3
##  6  (139.4259 35.40653)  139.  35.4
##  7  (139.5964 35.36467)  140.  35.4
##  8  (139.5203 35.49649)  140.  35.5
##  9  (139.0488 35.26175)  139.  35.3
## 10  (139.0972 35.33835)  139.  35.3
## # ... with 1,777 more rows
…
